🧑‍🌾🧑‍🌾🧑‍🌾🧑‍🌾🧑‍🌾🧑‍🌾🧑‍🌾🧑‍🌾
aaaaaaaaaaaaaaaa
🧑‍🌾🧑‍🌾🧑‍🌾🧑‍🌾🧑‍🌾🧑‍🌾🧑‍🌾🧑‍🌾
aaaaaaaaaaaaaaaa
🧑‍🌾🧑‍🌾🧑‍🌾🧑‍🌾🧑‍🌾🧑‍🌾🧑‍🌾🧑‍🌾
aaaaaaaaaaaaaaaa
🧑‍🌾🧑‍🌾🧑‍🌾🧑‍🌾🧑‍🌾🧑‍🌾🧑‍🌾🧑‍🌾
aaaaaaaaaaaaaaaa
🧑‍🌾🧑‍🌾🧑‍🌾🧑‍🌾🧑‍🌾🧑‍🌾🧑‍🌾🧑‍🌾
aaaaaaaaaaaaaaaa
🧑‍🌾🧑‍🌾🧑‍🌾🧑‍🌾🧑‍🌾🧑‍🌾🧑‍🌾🧑‍🌾
aaaaaaaaaaaaaaaa
🧑‍🌾🧑‍🌾🧑‍🌾🧑‍🌾🧑‍🌾🧑‍🌾🧑‍🌾🧑‍🌾
aaaaaaaaaaaaaaaa
🧑‍🌾🧑‍🌾🧑‍🌾🧑‍🌾🧑‍🌾🧑‍🌾🧑‍🌾🧑‍🌾
aaaaaaaaaaaaaaaa
